{
  "type": "PointsCollection",
  "points": [
    [
      51.124308282705,
      17.086743844923863
    ],
    [
      51.124308282705,
      17.0864075
    ],
    [
      51.1244490163525,
      17.086071154051375
    ],
    [
      51.1244490163525,
      17.0864075
    ],
    [
      51.1244490163525,
      17.086743844923863
    ],
    [
      51.12458975,
      17.086743844923863
    ],
    [
      51.12458975,
      17.0864075
    ],
    [
      51.12458975,
      17.086071154051375
    ],
    [
      51.1247304836475,
      17.086071152001846
    ],
    [
      51.1247304836475,
      17.086407498975237
    ],
    [
      51.1247304836475,
      17.08674384594863
    ],
    [
      51.124871217294995,
      17.086407498975237
    ],
    [
      51.124871217294995,
      17.086071150977066
    ]
  ]
}